H:10; C:10; tinit:20; c0:0.5; c1:0.1; c2:0.025; delta:0.001; max10000; numThreads:10000

-----Cylinder-----
70 70 70 70 70 20 20 20 20 20 
70 70 70 70 70 20 20 20 20 20 
70 70 70 70 70 20 20 20 20 20 
70 70 70 70 70 20 20 20 20 20 
70 70 70 70 70 20 20 20 20 20 
20 20 20 20 20 20 20 20 20 20 
20 20 20 20 20 20 20 20 20 20 
20 20 20 20 20 20 20 20 20 20 
20 20 20 20 20 20 20 20 20 20 
20 20 20 20 20 20 20 20 20 20 

-----Cylinder-----
70 70 70 hit worker thread70
 average temp for this iteration: 16.0201 5.95067 5.19836 5.17328 5.17244 5.5140832.5 

max delta for this iteration: 18.5384 55.3443
19.0198 19.0391 19.0224 16.7852 6.35135 5.47769 5.44146 5.44286 5.9242 
18.5758 19.0663 19.0872 19.0689 16.8233 6.37468 5.49335 5.4555 5.45799 5.94844 
18.5777 19.0687 19.0897 19.0712 16.8252 6.37597 5.49423 5.45625 5.45884 5.94978 
16.4944 16.4993 16.5041 16.4851 14.6557 5.88705 5.47798 5.45575 5.45887 5.46374 
6.39951 6.03828 6.02628 6.01005 5.87529 5.55986 5.46245 5.45508 5.45479 5.09355 
5.97275 5.50392 5.48474 5.48234 5.475 5.46231 5.45595 5.45468 5.45155 4.98271 
5.95315 5.47738 5.45696 5.45597 5.45557 5.45502 5.45467 5.45454 5.45051 4.97475 
5.95221 5.47607 5.45555 5.45466 5.4546 5.45457 5.45455 5.45451 5.45041 4.97428 
5.11883 4.61489 4.59344 4.59252 4.59248 4.59248 4.59248 4.59244 4.58834 4.0844 

-----Cylinder-----
hit worker thread
17.75 4.71822 4.72955 4.64151 3.79405 average temp for this iteration: 1.68876 1.37599 1.35288 1.36711 1.51427 
4.95315 5.153888.54454 
max delta for this iteration: 5.16874 5.06283 14.1059
4.13003 1.87665 1.5098 1.47973 1.50037 1.70101 
4.97977 5.18562 5.20127 5.09354 4.15454 1.89212 1.52052 1.48943 1.51112 1.71688 
4.88658 5.05998 5.07003 4.96529 4.0539 1.85531 1.51541 1.48976 1.50784 1.68117 
4.00631 3.99003 3.98702 3.91 3.25342 1.66029 1.50246 1.489 1.48799 1.47166 
1.90318 1.74925 1.73614 1.72014 1.65045 1.53188 1.49247 1.48803 1.47149 1.31755 
1.71955 1.52376 1.50745 1.50483 1.49963 1.49224 1.48854 1.48744 1.46529 1.26951 
1.70668 1.50697 1.49002 1.48881 1.48842 1.48798 1.48771 1.48725 1.46422 1.26451 
1.66349 1.46162 1.44428 1.44315 1.44307 1.44304 1.44302 1.44263 1.41929 1.21742 
1.25913 1.07709 1.06514 1.06441 1.06437 1.06436 1.06436 1.06401 1.04405 0.862013 

-----Cylinder-----
hit worker thread
4.571 1.23989 1.24174 1.1877 0.92372average temp for this iteration:  0.467671 0.368313 0.357737 0.366771 0.41481 
2.24819
1.33105max delta for this iteration:  3.79597
1.39495 1.39737 1.33344 1.03663 0.534375 0.416788 0.403489 0.415965 0.47987 
1.3391 1.40315 1.40529 1.34053 1.04227 0.538959 0.42113 0.407888 0.420592 0.484683 
1.27856 1.3242 1.3231 1.26253 0.984849 0.517696 0.417738 0.407644 0.416663 0.462363 
0.996278 0.985572 0.980131 0.939662 0.75868 0.458284 0.41187 0.406338 0.404166 0.393538 
0.544721 0.494577 0.487381 0.478983 0.454007 0.41987 0.407725 0.405187 0.394628 0.344548 
0.484836 0.422328 0.414472 0.412867 0.410487 0.407585 0.406108 0.404654 0.391161 0.328672 
0.477024 0.41292 0.404852 0.404047 0.403811 0.40359 0.403433 0.402203 0.388221 0.324119 
0.446722 0.383021 0.375239 0.374569 0.374508 0.374489 0.374451 0.37327 0.359416 0.295716 
0.303738 0.253462 0.248975 0.248614 0.248586 0.248583 0.248559 0.24768 0.237254 0.186977 

-----Cylinder-----
hit worker thread1.19181
 0.327735 0.326786 0.304364 0.229807 average temp for this iteration: 0.127807 0.0992788 0.095547 0.0993673 0.113461 
0.5918040.35884 
max delta for this iteration: 0.376936 1.02959
0.375775 0.349184 0.263889 0.148915 0.114977 0.110397 0.115515 0.133835 
0.359835 0.377204 0.37571 0.348974 0.26392 0.149727 0.116405 0.112023 0.117014 0.134629 
0.333607 0.343949 0.341355 0.317404 0.24187 0.141461 0.114922 0.111684 0.114672 0.125253 
0.252197 0.247516 0.244177 0.22929 0.183876 0.125104 0.112766 0.110783 0.109371 0.104866 
0.15252 0.137718 0.134675 0.1313 0.123643 0.114724 0.111315 0.110072 0.105518 0.0907903 
0.13487 0.116796 0.113768 0.113023 0.11213 0.111168 0.110625 0.109648 0.103989 0.0859317 
0.130804 0.112257 0.109214 0.108825 0.108714 0.108623 0.108507 0.107593 0.101745 0.0832014 
0.116862 0.0990369 0.0962926 0.0959986 0.0959663 0.0959554 0.0958889 0.0950315 0.0894397 0.0716148 
0.072599 0.0600174 0.0585957 0.0584542 0.0584413 0.0584383 0.0583954 0.0578241 0.0540495 0.041468 

-----Cylinder-----
hit worker thread
0.313784 0.0869757 0.0860858 0.0782271 0.0581161 average temp for this iteration: 0.0346687 0.0268805 0.0257334 0.0270868 0.0310012 
0.155818
0.0968494max delta for this iteration:  0.276477
0.10159 0.100476 0.0911148 0.0678137 0.0409363 0.031668 0.0302924 0.032055 0.0370167 
0.0964473 0.100726 0.0994531 0.0901547 0.0672297 0.0409579 0.0320896 0.0308175 0.0324434 0.0369533 
0.0869466 0.0889787 0.087457 0.0794825 0.0600925 0.0382457 0.0315437 0.0305968 0.031396 0.0336347 
0.0646871 0.0629513 0.0614876 0.0568022 0.0458653 0.033959 0.030828 0.0301575 0.0295021 0.0279012 
0.0421354 0.0379618 0.0368429 0.0356708 0.0335114 0.0312812 0.0303538 0.0298258 0.0281702 0.0240451 
0.0371462 0.0321621 0.0311254 0.0308312 0.0305325 0.030239 0.0300402 0.0295628 0.0275507 0.0225772 
0.0353278 0.0302462 0.0292356 0.0290795 0.0290342 0.0289985 0.0289251 0.0284653 0.0264027 0.0213226 
0.0300384 0.0253573 0.0245033 0.0243941 0.02438 0.0243727 0.02432 0.023905 0.0220147 0.0173338 
0.0172901 0.0142826 0.0138723 0.0138237 0.0138184 0.0138155 0.013784 0.0135318 0.0123695 0.00936196 

-----Cylinder-----
hit worker thread
0.0832216 0.0231357 0.0226815 0.0201707 0.0148749 average temp for this iteration: 0.00936351 0.00729915 0.00697587 0.00740978 0.0084615 
0.0410277
max delta for this iteration: 0.0261269 0.074303
0.0272869 0.0267155 0.0237163 0.0175329 0.0111526 0.00870675 0.00832758 0.00887581 0.0101708 
0.0257669 0.0267309 0.0261063 0.0231753 0.0172019 0.0110983 0.00882317 0.00848031 0.0089535 0.0100543 
0.022657 0.0229734 0.022325 0.0199158 0.0150983 0.0102869 0.00863924 0.0083728 0.00855305 0.00898555 
0.0167524 0.0161641 0.0156234 0.0142677 0.0116817 0.00919246 0.00841416 0.00819437 0.00793789 0.0074202 
0.0115388 0.0103893 0.0100127 0.00964059 0.00906085 0.00851397 0.008262 0.00806014 0.00751278 0.00638737 
0.0101474 0.00880826 0.00847845 0.0083741 0.00828097 0.00819498 0.00812184 0.00792625 0.00727437 0.00594044 
0.00942512 0.0080783 0.00776836 0.00771264 0.00769591 0.0076819 0.00764381 0.00745456 0.0067952 0.00544922 
0.00762971 0.00644564 0.00619904 0.00616249 0.00615693 0.00615245 0.00612354 0.00595992 0.00538271 0.00419874 
0.00411594 0.00341321 0.00330139 0.00328608 0.00328406 0.00328202 0.00326592 0.00317412 0.00284661 0.00214389 

-----Cylinder-----
hit worker thread
0.0221862 0.00615972 0.00597347 0.005216 0.00384013 average temp for this iteration: 0.00252231 0.00198569 0.00189994 0.00203036 0.00230644 
0.0108017
0.00703686max delta for this iteration:  0.0199861
0.00730075 0.00706649 0.00616175 0.0045508 0.00302012 0.00238968 0.00229106 0.00245033 0.0027791 
0.00686078 0.00705557 0.00680806 0.0059408 0.00441813 0.00299031 0.00242027 0.00233157 0.0024588 0.00271767 
0.00590655 0.00592764 0.00569189 0.00500701 0.00383278 0.00276076 0.00236138 0.00228707 0.00232002 0.00239315 
0.00436887 0.00418057 0.00400037 0.00362726 0.00302009 0.00248502 0.00229264 0.00222212 0.00213155 0.00197338 
0.00314042 0.0028279 0.0027086 0.00259729 0.00244623 0.0023129 0.00224349 0.00217201 0.00200149 0.0016991 
0.00275217 0.00239796 0.00229818 0.00226381 0.00223607 0.00221117 0.00218464 0.00211293 0.00191385 0.0015619 
0.00248954 0.00214043 0.00205032 0.00203194 0.00202613 0.00202061 0.00200372 0.00193486 0.00173717 0.00138843 
0.00192233 0.00162975 0.0015619 0.00155049 0.00154843 0.00154606 0.00153321 0.00147626 0.00131109 0.00101856 
0.000981096 0.000818701 0.000789346 0.000784784 0.000784043 0.000782939 0.000776237 0.000746413 0.000658992 0.000496603 

-----Cylinder-----
hit worker thread
0.00593398 0.00163961 0.00157184 0.00135194 0.000997373 average temp for this iteration: 0.000678329 0.000540807 0.000519064 0.000556505 0.000627646 
0.0028433
max delta for this iteration: 0.00189083 0.00535529
0.00194546 0.00186055 0.00159872 0.00118429 0.000814579 0.000654832 0.000630173 0.000674174 0.000755742 
0.001821 0.00185392 0.00176691 0.00152124 0.00113882 0.000803143 0.000662514 0.000639968 0.000672078 0.00073094 
0.00154094 0.00152983 0.00145198 0.00126499 0.000981923 0.00074046 0.000644238 0.00062338 0.000627062 0.000636216 
0.0011451 0.00108722 0.00103106 0.000931563 0.000789136 0.000671306 0.000623551 0.000601339 0.000571457 0.000524875 
0.000850645 0.000766352 0.000730201 0.000698229 0.000659565 0.000626945 0.000607459 0.000583555 0.000532523 0.000452037 
0.00074159 0.000648884 0.000619778 0.000609054 0.000601022 0.000593776 0.000584419 0.000560052 0.000501688 0.000409858 
0.000652241 0.000563157 0.000537931 0.000532203 0.000530259 0.000528121 0.000521441 0.000498394 0.000441721 0.000352791 
0.000481704 0.000410479 0.000392416 0.000389023 0.000388285 0.000387195 0.000382205 0.000363967 0.000318741 0.000247538 
0.000234391 0.000197033 0.000189519 0.000188214 0.000187949 0.000187448 0.000184993 0.000176 0.000153464 0.000116109 

-----Cylinder-----
hit worker thread
0.00158976 0.000435976 0.000413123 0.000351004 0.000260127 average temp for this iteration: 0.000182231 0.000147378 0.000142054 0.000152429 0.000170457 
0.000506674 0.000748229
max delta for this iteration: 0.000516374 0.00142909
0.000487947 0.000414428 0.000308793 0.000219137 0.000179174 0.000173161 0.000184838 0.00020465 
0.000481974 0.000485385 0.000457083 0.000389639 0.000294578 0.000215364 0.000181012 0.000175277 0.000182929 0.000195845 
0.000402371 0.000395163 0.000371055 0.000321404 0.000253572 0.000198628 0.000175453 0.000169526 0.000168992 0.000168951 
0.000301207 0.000283948 0.000267246 0.000241248 0.000207756 0.000181247 0.000169264 0.000162387 0.000152986 0.000139606 
0.0002295 0.000206892 0.000196298 0.000187375 0.000177575 0.000169513 0.000163947 0.000156293 0.000141453 0.000120166 
0.000198639 0.000174563 0.000166305 0.00016309 0.000160804 0.000158668 0.000155476 0.000147642 0.000131034 0.000107272 
0.000169749 0.000147276 0.000140405 0.000138691 0.000138056 0.000137255 0.00013483 0.000127566 0.000111845 8.94296e-05 
0.000120271 0.000103097 9.83975e-05 9.74228e-05 9.7165e-05 9.67168e-05 9.49533e-05 8.9446e-05 7.74425e-05 6.02768e-05 
5.61526e-05 4.75656e-05 4.56757e-05 4.53125e-05 4.5219e-05 4.50189e-05 4.41948e-05 4.1619e-05 3.5943e-05 2.7357e-05 

-----Cylinder-----
hit worker thread
0.000426073 0.000115739 0.000108433 9.12397e-05 6.8043e-05 average temp for this iteration: 4.89235e-05 4.01706e-05 3.89012e-05 4.16932e-05 4.61878e-05 
0.00019684
max delta for this iteration: 0.000135376 0.000379816
cylinder has reached convergence
0.000136557 0.000127558 0.00010738 8.06465e-05 5.88581e-05 4.89562e-05 4.75076e-05 5.05007e-05 5.52114e-05 
0.000127261 0.000126736 0.000118018 9.99261e-05 7.64655e-05 5.77148e-05 4.93696e-05 4.78897e-05 4.96056e-05 5.23188e-05 
0.00010517 0.000102205 9.50704e-05 8.21402e-05 6.59295e-05 5.33067e-05 4.77013e-05 4.59968e-05 4.5435e-05 4.4835e-05 
7.94261e-05 7.44006e-05 6.95966e-05 6.28941e-05 5.49836e-05 4.89031e-05 4.58512e-05 4.37565e-05 4.09001e-05 3.71249e-05 
6.16987e-05 5.56637e-05 5.26389e-05 5.01999e-05 4.77255e-05 4.5703e-05 4.40934e-05 4.17241e-05 3.75013e-05 3.18975e-05 
5.29182e-05 4.67033e-05 4.44106e-05 4.34754e-05 4.28302e-05 4.21927e-05 4.114e-05 3.87247e-05 3.41056e-05 2.79969e-05 
4.39385e-05 3.83174e-05 3.64838e-05 3.59866e-05 3.57823e-05 3.5494e-05 3.46691e-05 3.24809e-05 2.82264e-05 2.26257e-05 
2.99596e-05 2.58429e-05 2.46403e-05 2.4367e-05 2.42788e-05 2.41098e-05 2.3528e-05 2.19353e-05 1.88205e-05 1.47071e-05 
1.34923e-05 1.15158e-05 1.10462e-05 1.0947e-05 1.09148e-05 1.08417e-05 1.0582e-05 9.87094e-06 8.46365e-06 6.48763e-06 
CPU time used: 2.354 ms
